ryokou;utazás
geemu;(számítógépes)játék
basuketto booru, basuke;kosárlabda
dansu;tánc
ongaku;zene
onganu wo kikukoto;zenét hallgatni
shashin;fénykép
shashin wo torukoto;fényképet készíteni, fotózni
e wo kakukoto;rajzolni, festeni, írni
dokusho;olvasás
hon;könyv
hon wo yomukoto;könyvet olvasni
ryouri;étel
ryouri wo tsukurukoto;ételt főzni, ételt készíteni
saihou;varrás
unten shimasu;vezetni
kuruma;autó
gidousha;autó
kuruma wo unten surukoto;autót vezetni
isha;orvos
gakusei;diák
daigakuseu;egyetemista
kaisha;cég
kaishain;céges alkalmazott
sarariiman;vállalati dolgozó (salary man)
enjinia;mérnök (engineer)
ueitoresu;felszolgáló, pincér
nakai;tradicionális japán felszolgáló
seibutsu;biológia
seibutsukougaku;biológiai/biotechnológiai
kara;-ból/-ből
kimashita;jöttem/érkeztem
Shumi wa nan desu ka?;Mi a hobbid?
Shumi wa ... desu.;... a hobbim.
Shigoto wa nan desu ka?;Mi a foglalkozásod?
Shigoto wa ... desu.;Az én foglalkozásom ...
Gakusei desu;Tanuló vagyok
Toukyou kara kimashita;Tókióból jöttem.
Shibuya koukou no ni nensei desu;Shibuyai gimnáziumban vagyok másodikas.
Hajimemashite;Örvendek
Watashi wa *(név)* desu;*(név)* vagyok
(életkor) sai desu;(életkor) éves vagyok
Budapesuto kara kimashita;Budapestről jöttem
Daigaku ni nensei desu;Másodéves vagyok az egyetemen
Károli daigaku no ni nensei desu;A Károli egyetem másodévese vagyok
Shigoto wa kaishain desu;Alkalmazott vagyok
Yoroshiku onegaishimasu;"Örvendek a találkozásnak"