jinzu (jeans);farmer
kabe;fal
tansu;szekrény
youfuku;nyugati-stílusú ruha
youfukutansu, waadoroobu;ruhásszekrény
jimusho, ofisu;iroda
seiridansu;fiókos szekrény
seiri;rendezni
fairu;irattartó mappa
ringufairu;kapcsos mappa
kuriafairu;nejlon irattartó
purintaa;nyomtató
shokubutsu;növény
kabin;váza
onna no hito;nő
josei;hölgy
otoko no hito;férfi
onnanoko;kislány
otokonoko;kisfiú
dansei;úr